<?xml version="1.0" encoding="UTF-8" standalone="no"?>
<svg width="16px" height="16px" viewBox="0 0 16 16" version="1.1" xmlns="http://www.w3.org/2000/svg" xmlns:xlink="http://www.w3.org/1999/xlink">
    <!-- Generator: Sketch 48.2 (47327) - http://www.bohemiancoding.com/sketch -->
    <title>x-icon_V2</title>
    <desc>Created with Sketch.</desc>
    <defs></defs>
    <g id="Page-1" stroke="none" stroke-width="1" fill="none" fill-rule="evenodd" stroke-linecap="round" stroke-linejoin="round">
        <g id="x-icon_V2" stroke="#FFFFFF" stroke-width="2">
            <path d="M3,8 L12,8" id="Stroke-1"></path>
            <polyline id="Stroke-5" points="4 10 2 7.99943423 4 6"></polyline>
            <polyline id="Stroke-5-Copy" transform="translate(13.000000, 8.000000) scale(-1, 1) translate(-13.000000, -8.000000) " points="14 10 12 7.99943423 14 6"></polyline>
        </g>
    </g>
</svg>
